<svg xmlns="http://www.w3.org/2000/svg" xmlns:xlink="http://www.w3.org/1999/xlink" width="48" height="48" viewBox="0 0 48 48">
    <defs>
        <path id="a" d="M45 22.448a3.498 3.498 0 0 1-1.216 2.657A3.499 3.499 0 0 1 45 27.762v.018a3.499 3.499 0 0 1-1.216 2.657A3.499 3.499 0 0 1 45 33.094v.104a3.499 3.499 0 0 1-1.216 2.657A3.499 3.499 0 0 1 45 38.512C45 40.435 43.455 42 41.555 42H24.483a8.567 8.567 0 0 1-5.665-2.132C18.717 41.061 17.726 42 16.523 42H3.82a.825.825 0 0 1-.82-.83V19.705c0-.459.367-.83.82-.83h12.703c1.057 0 1.95.724 2.22 1.71.72-.448 1.41-.941 2.058-1.476 2.438-2.007 4.356-4.597 5.702-7.698.368-.846.66-1.8.895-2.919a3.151 3.151 0 0 1 .789-1.522c.867-.918 1.97-.973 2.301-.97 1.775.005 3.218 1.469 3.218 3.268 0 .349.002.67.004.975.004.472.007.918 0 1.35a15.15 15.15 0 0 1-1.987 7.281h9.832c1.9 0 3.445 1.565 3.445 3.488v.086zm-27.813-.494v-.747a.67.67 0 0 0-.664-.672H4.64V40.34h7.252v-7.236c0-.458.367-.83.82-.83.453 0 .82.372.82.83v7.236h2.99a.669.669 0 0 0 .664-.672V21.958v-.004zm22.096 3.981a.825.825 0 0 1-.82-.83c0-.459.367-.83.82-.83h2.272c.995 0 1.804-.82 1.804-1.827v-.086c0-1.008-.81-1.827-1.804-1.827H30.217a.819.819 0 0 1-.73-.452.839.839 0 0 1 .065-.864 13.508 13.508 0 0 0 2.518-7.653c.007-.412.003-.848 0-1.31-.003-.308-.005-.635-.005-.988 0-.886-.711-1.607-1.585-1.607h-.035c-.142 0-.67.03-1.073.457-.187.197-.31.439-.37.719-.257 1.23-.584 2.291-.997 3.243-1.452 3.344-3.527 6.142-6.169 8.318a20.85 20.85 0 0 1-3.009 2.062v15.13l.774.754a6.956 6.956 0 0 0 4.882 1.995h17.072c.995 0 1.804-.82 1.804-1.827 0-1.007-.81-1.826-1.804-1.826h-2.272a.825.825 0 0 1-.82-.83c0-.46.367-.831.82-.831h2.272c.995 0 1.804-.82 1.804-1.827v-.104c0-1.007-.81-1.826-1.804-1.826h-2.272a.825.825 0 0 1-.82-.83c0-.46.367-.831.82-.831h2.272c.995 0 1.804-.82 1.804-1.827v-.018c0-1.007-.809-1.827-1.804-1.827h-2.272zm-26.57 4.28a.825.825 0 0 1-.82-.83c0-.459.367-.83.82-.83.453 0 .82.371.82.83 0 .459-.367.83-.82.83z"/>
    </defs>
    <use fill="#828282" fill-rule="evenodd" xlink:href="#a"/>
</svg>
